INDEX VERSION 1.130+C:\student-assignment\Assignment-2\workspace\.metadata\.plugins\org.eclipse.jdt.core
674573568.index
4259073463.index
3345639352.index
4210133528.index
2706265924.index
895354549.index
4283052538.index
1464149161.index
337715520.index
819826887.index
4135958314.index
3348520720.index
1677012473.index
1427319092.index
801542233.index
2929635522.index
2334772185.index
542153213.index
2205283528.index
3644761064.index
2885606711.index
1381081424.index
466646404.index
1593437875.index
2634818446.index
1067152887.index
2066830214.index
2345184792.index
2180152606.index
1008662090.index
1946725198.index
3685476080.index
3640279432.index
3583568289.index
2949090100.index
3081779902.index
3040837599.index
4138326577.index
103378668.index
1956904976.index
2507423472.index
1961815414.index
3834028005.index
1719248297.index
1030863809.index
411227453.index
1479416552.index
866507453.index
3422468025.index
1340010590.index
