INDEX VERSION 1.3+C:\student-assignment\Assignment-2\workspace\.metadata\.plugins\org.eclipse.wst.jsdt.core\indexes
1297108254.index
1168415193.index
4074959202.index
3489962793.index
1427319092.index
1667002683.index
